subnet_name,availability_zone,cidr_block
cw-sb-prd-subnet-0001,ap-northeast-1a,10.0.10.0/24
cw-sb-prd-subnet-0002,ap-northeast-1c,10.0.20.0/24
cw-sb-prd-subnet-0003,ap-northeast-1a,10.0.30.0/24
cw-sb-prd-subnet-0004,ap-northeast-1c,10.0.40.0/24